…
data <- do.call(rbind, data_general) %>% as.tibble()

data 

# # A tibble: 8,360 x 11
#       Div       Date    HomeTeam       AwayTeam  FTHG  FTAG    FTR  HTHG  HTAG    HTR season
#    <fctr>     <date>      <fctr>         <fctr> <int> <int> <fctr> <int> <int> <fctr>  <dbl>
#  1     E0 1995-08-19 Aston Villa     Man United     3     1      H     3     0      H   1996
#  2     E0 1995-08-19   Blackburn            QPR     1     0      H     1     0      H   1996
#  3     E0 1995-08-19     Chelsea        Everton     0     0      D     0     0      D   1996
#  4     E0 1995-08-19   Liverpool Sheffield Weds     1     0      H     0     0      D   1996
#  5     E0 1995-08-19    Man City      Tottenham     1     1      D     0     1      A   1996
#  6     E0 1995-08-19   Newcastle       Coventry     3     0      H     1     0      H   1996
#  7     E0 1995-08-19 Southampton  Nott'm Forest     3     4      A     1     3      A   1996
#  8     E0 1995-08-19    West Ham          Leeds     1     2      A     1     0      H   1996
#  9     E0 1995-08-19   Wimbledon         Bolton     3     2      H     2     2      D   1996
# 10     E0 1995-08-20     Arsenal  Middlesbrough     1     1      D     1     1      D   1996
# # ... with 8,350 more rows
…
data_tidy

# # A tibble: 16,720 x 13
# # Groups:   season, team [440]
#      Div season       Date        team venue   FTR  FTGF  FTGA   HTR  HTGF  HTGA points_earned points
#    <chr>  <dbl>     <date>       <chr> <chr> <chr> <int> <int> <chr> <int> <int>         <dbl>  <dbl>
#  1    E0   1996 1995-08-19 Aston Villa  Home     W     3     1     W     3     0             3      3
#  2    E0   1996 1995-08-19   Blackburn  Home     W     1     0     W     1     0             3      3
#  3    E0   1996 1995-08-19     Chelsea  Home     D     0     0     D     0     0             1      1
#  4    E0   1996 1995-08-19   Liverpool  Home     W     1     0     D     0     0             3      3
#  5    E0   1996 1995-08-19    Man City  Home     D     1     1     L     0     1             1      1
#  6    E0   1996 1995-08-19   Newcastle  Home     W     3     0     W     1     0             3      3
#  7    E0   1996 1995-08-19 Southampton  Home     L     3     4     L     1     3             0      0
#  8    E0   1996 1995-08-19    West Ham  Home     L     1     2     W     1     0             0      0
#  9    E0   1996 1995-08-19   Wimbledon  Home     W     3     2     D     2     2             3      3
# 10    E0   1996 1995-08-19  Man United  Away     L     1     3     L     0     3             0      0
# # ... with 16,710 more rows
…
From these graphs, it looks like Arsenal follow a similar pattern every year, which is not surprising since the 2017 season was the first in Arsene Wenger’s tenure that they have not finised in the top 4. Looking at the plot for the 2017 season, it is clear that the period of the season that killed their chances of finishing in the top 4 was the strech of games between Februrary and March where their point increase flat lined. Let’s now take a look at team’s average finishing point total.

season_ending <- data_tidy %>%
  group_by(season, team) %>%
  summarise(final_points = max(points), final_goals_for = sum(FTGF), final_goals_against = sum(FTGA)) %>%
  ungroup() %>%
  group_by(season) %>%
  mutate(table_position = 20 - rank(final_points, ties.method = "min")) %>%
  ungroup()
  
season_ending

# # A tibble: 440 x 6
#    season        team final_points final_goals_for final_goals_against table_position
#     <dbl>       <chr>        <dbl>           <int>               <int>          <dbl>
#  1   1996     Arsenal           63              49                  32              4
#  2   1996 Aston Villa           63              52                  35              4
#  3   1996   Blackburn           61              61                  47              7
#  4   1996      Bolton           29              39                  71             19
#  5   1996     Chelsea           50              46                  44             10
#  6   1996    Coventry           38              42                  60             17
#  7   1996     Everton           61              64                  44              7
#  8   1996       Leeds           43              40                  57             12
#  9   1996   Liverpool           71              70                  34              2
# 10   1996    Man City           38              33                  58             17
# # ... with 430 more rows
…
season_ending_stats <- season_ending %>%
  group_by(team) %>%
  summarise(avg_final_points = round(mean(final_points), 0), 
            sd_final_points = round(sd(final_points), 0), 
            avg_final_goals_for = round(mean(final_goals_for), 0), 
            sd_final_goals_for = round(sd(final_goals_for), 0),
            avg_final_goals_against = round(mean(final_goals_against), 0), 
            sd_final_goals_against = round(sd(final_goals_against), 0),
            avg_table_position = round(mean(table_position), 0),
            sd_table_poisiton = round(sd(table_position), 0),
            num_seasons = n())

season_ending_stats

# # A tibble: 46 x 10
#           team avg_final_points sd_final_points avg_final_goals_for sd_final_goals_for avg_final_goals_against sd_final_goals_against
#          <chr>            <dbl>           <dbl>               <dbl>              <dbl>                   <dbl>                  <dbl>
#  1     Arsenal               75               7                  71                  9                      36                      7
#  2 Aston Villa               50              11                  46                  9                      50                     11
#  3    Barnsley               35             NaN                  37                NaN                      82                    NaN
#  4  Birmingham               43               7                  39                  6                      51                      6
#  5   Blackburn               48              10                  48                  8                      52                      9
#  6   Blackpool               39             NaN                  55                NaN                      78                    NaN
#  7      Bolton               44               9                  44                  5                      57                     10
#  8 Bournemouth               44               3                  50                  7                      67                      0
#  9    Bradford               31               7                  34                  6                      69                      1
# 10     Burnley               34               5                  36                  7                      63                     16
# # ... with 36 more rows, and 3 more variables: avg_table_position <dbl>, sd_table_poisiton <dbl>, num_seasons <int>
…
opening_games

# # A tibble: 440 x 22
#      Div season       Date        team venue   FTR  FTGF  FTGA   HTR  HTGF  HTGA points_earned points final_points final_goals_for
#    <chr>  <dbl>     <date>       <chr> <chr> <chr> <int> <int> <chr> <int> <int>         <dbl>  <dbl>        <dbl>           <int>
#  1    E0   1996 1995-08-19 Aston Villa  Home     W     3     1     W     3     0             3      3           63              52
#  2    E0   1996 1995-08-19   Blackburn  Home     W     1     0     W     1     0             3      3           61              61
#  3    E0   1996 1995-08-19     Chelsea  Home     D     0     0     D     0     0             1      1           50              46
#  4    E0   1996 1995-08-19   Liverpool  Home     W     1     0     D     0     0             3      3           71              70
#  5    E0   1996 1995-08-19    Man City  Home     D     1     1     L     0     1             1      1           38              33
#  6    E0   1996 1995-08-19   Newcastle  Home     W     3     0     W     1     0             3      3           78              66
#  7    E0   1996 1995-08-19 Southampton  Home     L     3     4     L     1     3             0      0           38              34
#  8    E0   1996 1995-08-19    West Ham  Home     L     1     2     W     1     0             0      0           51              43
#  9    E0   1996 1995-08-19   Wimbledon  Home     W     3     2     D     2     2             3      3           41              55
# 10    E0   1996 1995-08-19  Man United  Away     L     1     3     L     0     3             0      0           82              73
# # ... with 430 more rows, and 7 more variables: final_goals_against <int>, table_position <dbl>, game <dbl>, final_points_last <dbl>,
# #   final_goals_for_last <int>, final_goals_against_last <int>, final_table_position_last <dbl>
