…
Now we can look up both the Fan Graphs and Baseball Savant data. From the above we can see that his Fan Graphs id is “13853”.

joey_fg <- baseballr::batter_game_logs_fg("13853", year = 2018)

joey_fg %>% as_tibble()

## # A tibble: 119 x 23
##    Date  Team  Opp   BO    Pos   PA    H     X2B   X3B   HR    R     RBI  
##    <chr> <chr> <chr> <chr> <chr> <chr> <chr> <chr> <chr> <chr> <chr> <chr>
##  1 2018~ TBR   @TOR  4     2B    4     0     0     0     0     0     0    
##  2 2018~ TBR   @TOR  5     2B    4     0     0     0     0     0     0    
##  3 2018~ TBR   @TOR  5     SS-3B 4     3     1     0     0     1     0    
##  4 2018~ TBR   @CLE  1     3B    5     2     1     0     0     1     1    
##  5 2018~ TBR   @CLE  1     2B    5     2     1     0     0     1     0    
##  6 2018~ TBR   @CLE  1     2B    4     1     0     0     0     0     0    
##  7 2018~ TBR   @ATL  5     2B    5     2     0     0     0     2     2    
##  8 2018~ TBR   @ATL  1     2B    5     2     0     0     0     1     0    
##  9 2018~ TBR   BOS   1     2B    5     2     1     0     0     1     0    
## 10 2018~ TBR   BOS   1     2B    5     2     0     0     0     0     1    
## # ... with 109 more rows, and 11 more variables: SB <chr>, CS <chr>,
## #   BB_perc <dbl>, K_perc <dbl>, ISO <chr>, BABIP <chr>, AVG <chr>,
## #   OBP <chr>, SLG <chr>, wOBA <chr>, wRC_plus <chr>

We can do the same with the Baseball Savant data using the corresponding player id - “621563”

joey_bsvnt <- scrape_statcast_savant_batter(start_date = "2018-03-29", end_date = Sys.Date(), batterid = "621563")

joey_bsvnt %>% as_tibble()

## # A tibble: 1,687 x 90
##    pitch_type game_date  release_speed release_pos_x release_pos_z
##    <chr>      <date>             <dbl>         <dbl>         <dbl>
##  1 SI         2018-09-05          92.5         -2.44          5.48
##  2 SI         2018-09-05          93.2         -2.39          5.70
##  3 CH         2018-09-05          88.4         -2.03          5.53
##  4 CU         2018-09-05          78.5         -1.87          5.67
##  5 CU         2018-09-05          80.6         -1.98          5.63
##  6 CU         2018-09-05          79.3         -1.92          5.65
##  7 CU         2018-09-05          78.1         -2.02          5.69
##  8 FT         2018-09-05          92.3         -1.90          5.69
##  9 CH         2018-09-05          89.3         -1.92          5.57
## 10 FT         2018-09-05          93.9         -1.88          5.60
## # ... with 1,677 more rows, and 85 more variables: player_name <chr>,
## #   batter <int>, pitcher <int>, events <chr>, description <chr>,
## #   spin_dir <chr>, spin_rate_deprecated <chr>,
## #   break_angle_deprecated <chr>, break_length_deprecated <chr>,
## #   zone <int>, des <chr>, game_type <chr>, stand <chr>, p_throws <chr>,
## #   home_team <chr>, away_team <chr>, type <chr>, hit_location <int>,
## #   bb_type <chr>, balls <int>, strikes <int>, game_year <int>,
## #   pfx_x <dbl>, pfx_z <dbl>, plate_x <dbl>, plate_z <dbl>, on_3b <dbl>,
## #   on_2b <dbl>, on_1b <dbl>, outs_when_up <int>, inning <int>,
…
