…
library(ggplot2)
library(tibble)
library(stringr)
library(gt) # for the sp500 dataset
library(janitor)

_if

Let’s first take a look at mutate_if by looking at an example where we want to convert factors to character variables. The data set we will be using for this example is diamonds in the ggplot2 package.

diamonds

## # A tibble: 53,940 x 10
##    carat cut       color clarity depth table price     x     y     z
##    <dbl> <ord>     <ord> <ord>   <dbl> <dbl> <int> <dbl> <dbl> <dbl>
##  1 0.23  Ideal     E     SI2      61.5    55   326  3.95  3.98  2.43
##  2 0.21  Premium   E     SI1      59.8    61   326  3.89  3.84  2.31
##  3 0.23  Good      E     VS1      56.9    65   327  4.05  4.07  2.31
##  4 0.290 Premium   I     VS2      62.4    58   334  4.2   4.23  2.63
##  5 0.31  Good      J     SI2      63.3    58   335  4.34  4.35  2.75
##  6 0.24  Very Good J     VVS2     62.8    57   336  3.94  3.96  2.48
##  7 0.24  Very Good I     VVS1     62.3    57   336  3.95  3.98  2.47
##  8 0.26  Very Good H     SI1      61.9    55   337  4.07  4.11  2.53
##  9 0.22  Fair      E     VS2      65.1    61   337  3.87  3.78  2.49
## 10 0.23  Very Good H     VS1      59.4    61   338  4     4.05  2.39
## # ... with 53,930 more rows

As we can see, there are three columns of factors in the data set (ord is just an ordered factor) - cut, color, and clarity. If you weren’t using scoped verbs, then you would convert them with something like this.

diamonds %>% 
  mutate(
    cut = as.character(cut),
    color = as.character(color),
    clarity = as.character(clarity)
  )

## # A tibble: 53,940 x 10
##    carat cut       color clarity depth table price     x     y     z
##    <dbl> <chr>     <chr> <chr>   <dbl> <dbl> <int> <dbl> <dbl> <dbl>
##  1 0.23  Ideal     E     SI2      61.5    55   326  3.95  3.98  2.43
##  2 0.21  Premium   E     SI1      59.8    61   326  3.89  3.84  2.31
##  3 0.23  Good      E     VS1      56.9    65   327  4.05  4.07  2.31
##  4 0.290 Premium   I     VS2      62.4    58   334  4.2   4.23  2.63
##  5 0.31  Good      J     SI2      63.3    58   335  4.34  4.35  2.75
##  6 0.24  Very Good J     VVS2     62.8    57   336  3.94  3.96  2.48
##  7 0.24  Very Good I     VVS1     62.3    57   336  3.95  3.98  2.47
##  8 0.26  Very Good H     SI1      61.9    55   337  4.07  4.11  2.53
##  9 0.22  Fair      E     VS2      65.1    61   337  3.87  3.78  2.49
## 10 0.23  Very Good H     VS1      59.4    61   338  4     4.05  2.39
## # ... with 53,930 more rows

While this certainly works, it is easy to see how this method can get out of hand rather quickly. Now with the scoped variant, it is much cleaner. You have to pass a predicate function that will return TRUE or FALSE for the column (e.g. is.factor) and then it will apply the function (e.g. as.character) to all columns that return TRUE from the predicate.

diamonds %>% 
  mutate_if(is.factor, as.character)

## # A tibble: 53,940 x 10
##    carat cut       color clarity depth table price     x     y     z
##    <dbl> <chr>     <chr> <chr>   <dbl> <dbl> <int> <dbl> <dbl> <dbl>
##  1 0.23  Ideal     E     SI2      61.5    55   326  3.95  3.98  2.43
##  2 0.21  Premium   E     SI1      59.8    61   326  3.89  3.84  2.31
##  3 0.23  Good      E     VS1      56.9    65   327  4.05  4.07  2.31
##  4 0.290 Premium   I     VS2      62.4    58   334  4.2   4.23  2.63
##  5 0.31  Good      J     SI2      63.3    58   335  4.34  4.35  2.75
##  6 0.24  Very Good J     VVS2     62.8    57   336  3.94  3.96  2.48
##  7 0.24  Very Good I     VVS1     62.3    57   336  3.95  3.98  2.47
##  8 0.26  Very Good H     SI1      61.9    55   337  4.07  4.11  2.53
##  9 0.22  Fair      E     VS2      65.1    61   337  3.87  3.78  2.49
## 10 0.23  Very Good H     VS1      59.4    61   338  4     4.05  2.39
## # ... with 53,930 more rows

The conversion of factors (and other datatypes) is probably the thing I use mutate_if for the most, but you can use it for anything that has to be applied to all columns that meet certain conditions. If we wanted to add 10% of the mean of each numeric column to every value in that column (this is not practical, but just as an illustration) you could do the following.

diamonds %>% 
  mutate_if(is.numeric, list(~.+0.1*mean(., na.rm = TRUE)))

## # A tibble: 53,940 x 10
##    carat cut       color clarity depth table price     x     y     z
##    <dbl> <ord>     <ord> <ord>   <dbl> <dbl> <dbl> <dbl> <dbl> <dbl>
##  1 0.310 Ideal     E     SI2      67.7  60.7  719.  4.52  4.55  2.78
##  2 0.290 Premium   E     SI1      66.0  66.7  719.  4.46  4.41  2.66
##  3 0.310 Good      E     VS1      63.1  70.7  720.  4.62  4.64  2.66
##  4 0.370 Premium   I     VS2      68.6  63.7  727.  4.77  4.80  2.98
##  5 0.390 Good      J     SI2      69.5  63.7  728.  4.91  4.92  3.10
##  6 0.320 Very Good J     VVS2     69.0  62.7  729.  4.51  4.53  2.83
##  7 0.320 Very Good I     VVS1     68.5  62.7  729.  4.52  4.55  2.82
##  8 0.340 Very Good H     SI1      68.1  60.7  730.  4.64  4.68  2.88
##  9 0.300 Fair      E     VS2      71.3  66.7  730.  4.44  4.35  2.84
## 10 0.310 Very Good H     VS1      65.6  66.7  731.  4.57  4.62  2.74
## # ... with 53,930 more rows
…
Warning message:
funs() is soft deprecated as of dplyr 0.8.0
please use list() instead
# Before:
funs(name = f(.)
# After: 
list(name = ~f(.))
This warning is displayed once per session.

In this example, the original columns are modified to represent the new value. If you wanted to create new columns for all of the columns that this predicate function applies to, you can give the function a name in our list. The name of the function is appended to the name of every column that it applies to with a _ as a separator.

diamonds %>% 
  mutate_if(is.numeric, list("new" = ~.+0.1*mean(., na.rm = TRUE)))

## # A tibble: 53,940 x 17
##    carat cut   color clarity depth table price     x     y     z carat_new
##    <dbl> <ord> <ord> <ord>   <dbl> <dbl> <int> <dbl> <dbl> <dbl>     <dbl>
##  1 0.23  Ideal E     SI2      61.5    55   326  3.95  3.98  2.43     0.310
##  2 0.21  Prem~ E     SI1      59.8    61   326  3.89  3.84  2.31     0.290
##  3 0.23  Good  E     VS1      56.9    65   327  4.05  4.07  2.31     0.310
##  4 0.290 Prem~ I     VS2      62.4    58   334  4.2   4.23  2.63     0.370
##  5 0.31  Good  J     SI2      63.3    58   335  4.34  4.35  2.75     0.390
##  6 0.24  Very~ J     VVS2     62.8    57   336  3.94  3.96  2.48     0.320
##  7 0.24  Very~ I     VVS1     62.3    57   336  3.95  3.98  2.47     0.320
##  8 0.26  Very~ H     SI1      61.9    55   337  4.07  4.11  2.53     0.340
##  9 0.22  Fair  E     VS2      65.1    61   337  3.87  3.78  2.49     0.300
## 10 0.23  Very~ H     VS1      59.4    61   338  4     4.05  2.39     0.310
## # ... with 53,930 more rows, and 6 more variables: depth_new <dbl>,
## #   table_new <dbl>, price_new <dbl>, x_new <dbl>, y_new <dbl>,
## #   z_new <dbl>
…
diamonds %>% 
  summarize_if(higher_fifty, list("mean" = mean))

## # A tibble: 1 x 4
##   depth_mean table_mean price_mean y_mean
##        <dbl>      <dbl>      <dbl>  <dbl>
## 1       61.7       57.5      3933.   5.73

Another useful _if variant is select_if. You may want to select all of the numeric columns in the diamonds data set for further analysis, and select_if is perfect for this case. The implementation is the same as mutate_if and summarize_if, just instead of specifying a function to apply to the selected columns, you only specify a predicate function.

diamonds %>% 
  select_if(is.numeric)

## # A tibble: 53,940 x 7
##    carat depth table price     x     y     z
##    <dbl> <dbl> <dbl> <int> <dbl> <dbl> <dbl>
##  1 0.23   61.5    55   326  3.95  3.98  2.43
##  2 0.21   59.8    61   326  3.89  3.84  2.31
##  3 0.23   56.9    65   327  4.05  4.07  2.31
##  4 0.290  62.4    58   334  4.2   4.23  2.63
##  5 0.31   63.3    58   335  4.34  4.35  2.75
##  6 0.24   62.8    57   336  3.94  3.96  2.48
##  7 0.24   62.3    57   336  3.95  3.98  2.47
##  8 0.26   61.9    55   337  4.07  4.11  2.53
##  9 0.22   65.1    61   337  3.87  3.78  2.49
## 10 0.23   59.4    61   338  4     4.05  2.39
## # ... with 53,930 more rows

The last scoped verb for the _if variants is filter. filter_if is slightly different than the rest of the _if variants, because in addition to operating on columns in the data frame based on a condition, it can also operate on the rows of the data frame based on a condition. This row-wise operation is handled by the .vars_predicate argument in the scoped filter verbs. This argument is used in conjunction with the helper predicate functions all_vars and any_vars.

For this example, we will use the sp500 data set from the gt package. Let’s say that we want to filter all of the rows that did not have a value of greater than $2000 for the entire day. We can do that like this.

gt::sp500 %>% 
  filter_if(is.numeric, all_vars(. > 2000))

## # A tibble: 249 x 7
##    date        open  high   low close     volume adj_close
##    <date>     <dbl> <dbl> <dbl> <dbl>      <dbl>     <dbl>
##  1 2015-12-31 2061. 2063. 2044. 2044. 2655330000     2044.
##  2 2015-12-30 2077. 2077. 2062. 2063. 2367430000     2063.
##  3 2015-12-29 2061. 2082. 2061. 2078. 2542000000     2078.
##  4 2015-12-28 2058. 2058. 2044. 2056. 2492510000     2056.
##  5 2015-12-24 2064. 2067. 2059. 2061. 1411860000     2061.
##  6 2015-12-23 2042. 2065. 2042. 2064. 3484090000     2064.
##  7 2015-12-22 2023. 2043. 2020. 2039. 3520860000     2039.
##  8 2015-12-21 2010. 2023. 2006. 2021. 3760280000     2021.
##  9 2015-12-18 2041. 2041. 2005. 2006. 6683070000     2006.
## 10 2015-12-17 2074. 2076. 2042. 2042. 4327390000     2042.
## # ... with 239 more rows
…
Let’s say that we want to normalize the mpg, hp, and drat columns from zero to one. We can do that by writing a simple function and applying it to each column, like this.

norm_dat <- function(x){
  (x-min(x))/(max(x)-min(x))
}

cars_tbl %>% 
  mutate(
    mpg = norm_dat(mpg),
    hp = norm_dat(hp),
    drat = norm_dat(drat)
  )

## # A tibble: 32 x 12
##    car     mpg   cyl  disp     hp  drat    wt  qsec    vs    am  gear  carb
##    <chr> <dbl> <dbl> <dbl>  <dbl> <dbl> <dbl> <dbl> <dbl> <dbl> <dbl> <dbl>
##  1 Mazd~ 0.451     6  160  0.205  0.525  2.62  16.5     0     1     4     4
##  2 Mazd~ 0.451     6  160  0.205  0.525  2.88  17.0     0     1     4     4
##  3 Dats~ 0.528     4  108  0.145  0.502  2.32  18.6     1     1     4     1
##  4 Horn~ 0.468     6  258  0.205  0.147  3.22  19.4     1     0     3     1
##  5 Horn~ 0.353     8  360  0.435  0.180  3.44  17.0     0     0     3     2
##  6 Vali~ 0.328     6  225  0.187  0      3.46  20.2     1     0     3     1
##  7 Dust~ 0.166     8  360  0.682  0.207  3.57  15.8     0     0     3     4
##  8 Merc~ 0.596     4  147. 0.0353 0.429  3.19  20       1     0     4     2
##  9 Merc~ 0.528     4  141. 0.152  0.535  3.15  22.9     1     0     4     2
## 10 Merc~ 0.374     6  168. 0.251  0.535  3.44  18.3     1     0     4     4
## # ... with 22 more rows

Just like with the previous example of converting factors to characters, this certainly works but can quickly become cumbersome when applying the same function to multiple columns in a data set. mutate_at allows you to specifically target columns to apply a function to.

cars_tbl%>% 
  mutate_at(vars(mpg, hp, drat), list(~norm_dat))

## # A tibble: 32 x 12
##    car     mpg   cyl  disp     hp  drat    wt  qsec    vs    am  gear  carb
##    <chr> <dbl> <dbl> <dbl>  <dbl> <dbl> <dbl> <dbl> <dbl> <dbl> <dbl> <dbl>
##  1 Mazd~ 0.451     6  160  0.205  0.525  2.62  16.5     0     1     4     4
##  2 Mazd~ 0.451     6  160  0.205  0.525  2.88  17.0     0     1     4     4
##  3 Dats~ 0.528     4  108  0.145  0.502  2.32  18.6     1     1     4     1
##  4 Horn~ 0.468     6  258  0.205  0.147  3.22  19.4     1     0     3     1
##  5 Horn~ 0.353     8  360  0.435  0.180  3.44  17.0     0     0     3     2
##  6 Vali~ 0.328     6  225  0.187  0      3.46  20.2     1     0     3     1
##  7 Dust~ 0.166     8  360  0.682  0.207  3.57  15.8     0     0     3     4
##  8 Merc~ 0.596     4  147. 0.0353 0.429  3.19  20       1     0     4     2
##  9 Merc~ 0.528     4  141. 0.152  0.535  3.15  22.9     1     0     4     2
## 10 Merc~ 0.374     6  168. 0.251  0.535  3.44  18.3     1     0     4     4
## # ... with 22 more rows

We can see how handy this can become and how much time this can save you if you are repeating the same operation on numerous columns within a tibble. An second, but equally advantageous, use of mutate_at is the deselection of columns to which a function should be applied. Say that we want to apply our normalization function to every column except car, vs and am, since they are binary columns. To do this we would use the same methods as your would if you were removing a column with select.

cars_tbl %>% 
  mutate_at(vars(-c(car, vs, am)), list(~norm_dat))

## # A tibble: 32 x 12
##    car     mpg   cyl   disp     hp  drat    wt  qsec    vs    am  gear
##    <chr> <dbl> <dbl>  <dbl>  <dbl> <dbl> <dbl> <dbl> <dbl> <dbl> <dbl>
##  1 Mazd~ 0.451   0.5 0.222  0.205  0.525 0.283 0.233     0     1   0.5
##  2 Mazd~ 0.451   0.5 0.222  0.205  0.525 0.348 0.3       0     1   0.5
##  3 Dats~ 0.528   0   0.0920 0.145  0.502 0.206 0.489     1     1   0.5
##  4 Horn~ 0.468   0.5 0.466  0.205  0.147 0.435 0.588     1     0   0  
##  5 Horn~ 0.353   1   0.721  0.435  0.180 0.493 0.3       0     0   0  
##  6 Vali~ 0.328   0.5 0.384  0.187  0     0.498 0.681     1     0   0  
##  7 Dust~ 0.166   1   0.721  0.682  0.207 0.526 0.160     0     0   0  
##  8 Merc~ 0.596   0   0.189  0.0353 0.429 0.429 0.655     1     0   0.5
##  9 Merc~ 0.528   0   0.174  0.152  0.535 0.419 1         1     0   0.5
## 10 Merc~ 0.374   0.5 0.241  0.251  0.535 0.493 0.452     1     0   0.5
## # ... with 22 more rows, and 1 more variable: carb <dbl>
…
Again, it is that easy!

Now, since the implementation is fairly similar to the other scoped variables, I won’t belabor the point. Instead, I will leave you will one other useful tool from the _all variants that I find helpful. Ordinarily, I prefer to work with my variable names in snake case. Luckily, the janitor package provides a great function, clean_names, to convert column names to all kinds of formats, snake case included. However, I find that when I want to share data with people not working in R, such as my manager, she does not want to see column names in snake case. Unfortunately, as far as I know, there is not a simply function, at this point, to convert R friendly column names back to title case. To accomplish this easily, I use the rename_all function. Let me know you an example with the iris data set after I have converted it to snake case with janitor::clean_names.

iris_tbl <- iris %>% 
  as_tibble() %>% 
  janitor::clean_names()

iris_tbl

## # A tibble: 150 x 5
##    sepal_length sepal_width petal_length petal_width species
##           <dbl>       <dbl>        <dbl>       <dbl> <fct>  
##  1          5.1         3.5          1.4         0.2 setosa 
##  2          4.9         3            1.4         0.2 setosa 
##  3          4.7         3.2          1.3         0.2 setosa 
##  4          4.6         3.1          1.5         0.2 setosa 
##  5          5           3.6          1.4         0.2 setosa 
##  6          5.4         3.9          1.7         0.4 setosa 
##  7          4.6         3.4          1.4         0.3 setosa 
##  8          5           3.4          1.5         0.2 setosa 
##  9          4.4         2.9          1.4         0.2 setosa 
## 10          4.9         3.1          1.5         0.1 setosa 
## # ... with 140 more rows
…
