…
repos <- gh("/user/repos", .limit = Inf)

We can extract the desired information from the repos using the map_chr and map_lgl functions in the purrr package.

repo_info <- tibble(
  owner = map_chr(repos, c("owner", "login")),
  name = map_chr(repos, "name"),
  full_name = map_chr(repos, "full_name"),
  private = map_lgl(repos, "private")
)

# showing the first few non-private repos
filter(repo_info, !private)

## # A tibble: 35 x 4
##    owner      name                  full_name                       private
##    <chr>      <chr>                 <chr>                           <lgl>  
##  1 saleslab   DWC                   saleslab/DWC                    FALSE  
##  2 saleslab   ParsingLabSolutionsA… saleslab/ParsingLabSolutionsAS… FALSE  
##  3 tbradley1… adv-r                 tbradley1013/adv-r              FALSE  
##  4 tbradley1… aob-power             tbradley1013/aob-power          FALSE  
##  5 tbradley1… blog                  tbradley1013/blog               FALSE  
##  6 tbradley1… connectapi            tbradley1013/connectapi         FALSE  
##  7 tbradley1… critical-thinking-ev… tbradley1013/critical-thinking… FALSE  
##  8 tbradley1… dbp-calculator        tbradley1013/dbp-calculator     FALSE  
##  9 tbradley1… dragondown            tbradley1013/dragondown         FALSE  
## 10 tbradley1… dragondown_book       tbradley1013/dragondown_book    FALSE  
## # … with 25 more rows
…
  out <- parse_commit(repo_commits, repo = z)
  
  return(out)
})

my_commits <- all_commits %>% 
  filter(commit_by == "Tyler Bradley") %>% 
  mutate(commit_time = commit_time - hours(5))

my_commits

## # A tibble: 3,560 x 5
##    repo     commit_by  username  commit_time         message               
##    <chr>    <chr>      <chr>     <dttm>              <chr>                 
##  1 nmanna/… Tyler Bra… tbradley… 2019-10-25 07:16:50 rendering changes     
##  2 nmanna/… Tyler Bra… tbradley… 2019-10-25 07:08:12 Merge branch 'master'…
##  3 nmanna/… Tyler Bra… tbradley… 2019-10-25 07:08:03 changes from rendering
##  4 nmanna/… Tyler Bra… tbradley… 2019-10-25 07:07:23 force style change    
##  5 nmanna/… Tyler Bra… tbradley… 2019-10-25 06:45:06 adding public back to…
##  6 nmanna/… Tyler Bra… tbradley… 2019-10-25 06:44:44 removing public       
##  7 nmanna/… Tyler Bra… tbradley… 2019-10-25 06:37:32 Merge branch 'master'…
##  8 nmanna/… Tyler Bra… tbradley… 2019-10-25 06:37:12 rendered on server    
##  9 nmanna/… Tyler Bra… tbradley… 2019-10-25 06:35:46 removed public        
## 10 nmanna/… Tyler Bra… tbradley… 2019-10-25 06:33:36 added post for settin…
## # … with 3,550 more rows
…
